5th semester/lab2/lab2/.files/Lab2_2/simulation/qsim/Lab2_2.msim.vcd
$comment
	File created using the following command:
		vcd file Lab2_2.msim.vcd -direction
$end
$date
	Thu Sep 14 13:05:29 2023
$end
$version
	ModelSim Version 10.5b
$end
$timescale
	1ps
$end

$scope module Lab2_2_vlg_vec_tst $end
$var reg 5 ! a [4:0] $end
$var reg 5 " b [4:0] $end
$var reg 5 # c [4:0] $end
$var reg 5 $ d [4:0] $end
$var wire 1 % maxRes [4] $end
$var wire 1 & maxRes [3] $end
$var wire 1 ' maxRes [2] $end
$var wire 1 ( maxRes [1] $end
$var wire 1 ) maxRes [0] $end
$var wire 1 * minRes [4] $end
$var wire 1 + minRes [3] $end
$var wire 1 , minRes [2] $end
$var wire 1 - minRes [1] $end
$var wire 1 . minRes [0] $end

$scope module i1 $end
$var wire 1 / gnd $end
$var wire 1 0 vcc $end
$var wire 1 1 unknown $end
$var tri1 1 2 devclrn $end
$var tri1 1 3 devpor $end
$var tri1 1 4 devoe $end
$var wire 1 5 minRes[0]~output_o $end
$var wire 1 6 minRes[1]~output_o $end
$var wire 1 7 minRes[2]~output_o $end
$var wire 1 8 minRes[3]~output_o $end
$var wire 1 9 minRes[4]~output_o $end
$var wire 1 : maxRes[0]~output_o $end
$var wire 1 ; maxRes[1]~output_o $end
$var wire 1 < maxRes[2]~output_o $end
$var wire 1 = maxRes[3]~output_o $end
$var wire 1 > maxRes[4]~output_o $end
$var wire 1 ? a[0]~input_o $end
$var wire 1 @ b[0]~input_o $end
$var wire 1 A b[3]~input_o $end
$var wire 1 B a[3]~input_o $end
$var wire 1 C a[4]~input_o $end
$var wire 1 D b[4]~input_o $end
$var wire 1 E minNumbers|LessThan0~0_combout $end
$var wire 1 F a[2]~input_o $end
$var wire 1 G minNumbers|LessThan0~1_combout $end
$var wire 1 H b[2]~input_o $end
$var wire 1 I a[1]~input_o $end
$var wire 1 J b[1]~input_o $end
$var wire 1 K minNumbers|LessThan0~2_combout $end
$var wire 1 L minNumbers|LessThan0~3_combout $end
$var wire 1 M minNumbers|temp1[0]~0_combout $end
$var wire 1 N minNumbers|temp1[3]~1_combout $end
$var wire 1 O minNumbers|temp1[4]~2_combout $end
$var wire 1 P d[3]~input_o $end
$var wire 1 Q c[3]~input_o $end
$var wire 1 R c[4]~input_o $end
$var wire 1 S d[4]~input_o $end
$var wire 1 T minNumbers|LessThan1~0_combout $end
$var wire 1 U d[0]~input_o $end
$var wire 1 V c[1]~input_o $end
$var wire 1 W c[0]~input_o $end
$var wire 1 X d[1]~input_o $end
$var wire 1 Y minNumbers|LessThan1~2_combout $end
$var wire 1 Z c[2]~input_o $end
$var wire 1 [ minNumbers|LessThan1~1_combout $end
$var wire 1 \ d[2]~input_o $end
$var wire 1 ] minNumbers|LessThan1~3_combout $end
$var wire 1 ^ minNumbers|temp2[3]~2_combout $end
$var wire 1 _ minNumbers|temp2[4]~1_combout $end
$var wire 1 ` minNumbers|LessThan2~0_combout $end
$var wire 1 a minNumbers|LessThan2~1_combout $end
$var wire 1 b minNumbers|temp2[2]~3_combout $end
$var wire 1 c minNumbers|temp1[1]~3_combout $end
$var wire 1 d minNumbers|temp2[1]~4_combout $end
$var wire 1 e minNumbers|temp2[0]~0_combout $end
$var wire 1 f minNumbers|LessThan2~2_combout $end
$var wire 1 g minNumbers|temp1[2]~4_combout $end
$var wire 1 h minNumbers|LessThan2~3_combout $end
$var wire 1 i minNumbers|res[0]~0_combout $end
$var wire 1 j minNumbers|res[1]~1_combout $end
$var wire 1 k minNumbers|res[2]~2_combout $end
$var wire 1 l minNumbers|res[3]~3_combout $end
$var wire 1 m minNumbers|res[4]~4_combout $end
$var wire 1 n maxNumbers|LessThan1~0_combout $end
$var wire 1 o maxNumbers|LessThan1~1_combout $end
$var wire 1 p maxNumbers|LessThan1~2_combout $end
$var wire 1 q maxNumbers|temp2[4]~2_combout $end
$var wire 1 r maxNumbers|LessThan0~0_combout $end
$var wire 1 s maxNumbers|LessThan0~1_combout $end
$var wire 1 t maxNumbers|LessThan0~2_combout $end
$var wire 1 u maxNumbers|temp1[3]~2_combout $end
$var wire 1 v maxNumbers|temp1[4]~1_combout $end
$var wire 1 w maxNumbers|temp2[3]~1_combout $end
$var wire 1 x maxNumbers|LessThan2~1_combout $end
$var wire 1 y maxNumbers|temp1[1]~4_combout $end
$var wire 1 z maxNumbers|temp2[1]~3_combout $end
$var wire 1 { maxNumbers|temp1[0]~0_combout $end
$var wire 1 | maxNumbers|temp2[0]~0_combout $end
$var wire 1 } maxNumbers|LessThan2~2_combout $end
$var wire 1 ~ maxNumbers|temp1[2]~3_combout $end
$var wire 1 !! maxNumbers|temp2[2]~4_combout $end
$var wire 1 "! maxNumbers|LessThan2~3_combout $end
$var wire 1 #! maxNumbers|LessThan2~0_combout $end
$var wire 1 $! maxNumbers|res[0]~0_combout $end
$var wire 1 %! maxNumbers|res[1]~1_combout $end
$var wire 1 &! maxNumbers|res[2]~2_combout $end
$var wire 1 '! maxNumbers|res[3]~3_combout $end
$var wire 1 (! maxNumbers|res[4]~4_combout $end
$upscope $end
$upscope $end
$enddefinitions $end
#0
$dumpvars
b0 !
b0 "
b0 #
b0 $
0)
0(
0'
0&
0%
0.
0-
0,
0+
0*
0/
10
x1
12
13
14
05
06
07
08
09
0:
0;
0<
0=
0>
0?
0@
0A
0B
0C
0D
0E
0F
1G
0H
0I
0J
0K
0L
0M
0N
0O
0P
0Q
0R
0S
0T
0U
0V
0W
0X
0Y
0Z
1[
0\
0]
0^
0_
0`
1a
0b
0c
0d
0e
0f
0g
0h
0i
0j
0k
0l
0m
0n
0o
0p
0q
0r
0s
0t
0u
0v
0w
1x
0y
0z
0{
0|
0}
0~
0!!
0"!
0#!
0$!
0%!
0&!
0'!
0(!
$end
#20000
b1 !
1?
1s
1t
1{
1}
1"!
1$!
1:
1)
#40000
b11 !
b1 "
b10 !
1@
0?
1I
0{
1M
1y
0$!
1%!
1;
0:
0)
1(
#60000
b11 !
1?
1{
1$!
1:
1)
#80000
b111 !
b11 "
b1 #
b101 !
b10 "
b100 !
1W
0@
1J
0?
0I
1F
1o
0{
0s
0M
1K
0y
1c
1~
1p
0}
0$!
0%!
1&!
1<
0;
0:
1|
0)
0(
1'
#100000
b101 !
1?
1{
1$!
1:
1)
#120000
b111 !
b11 "
b110 !
1@
0?
1I
0{
1M
1y
1}
0$!
1%!
1;
0:
0)
1(
#140000
b111 !
1?
1{
0K
1$!
1:
1)
#160000
b1111 !
b111 "
b11 #
b1 $
b1011 !
b101 "
b10 #
b1001 !
b100 "
b1000 !
1U
0W
1V
0@
0J
1H
0?
0I
0F
1B
0|
1e
1z
0{
0M
0y
0c
0~
0t
1g
1L
1u
1r
0G
0}
1f
0g
1N
1#!
0x
0L
0$!
1i
0%!
0&!
1'!
1=
0<
0;
15
0:
0"!
1h
0a
1g
0N
0)
1.
0(
0'
1&
0h
1a
1k
0i
05
17
1,
0.
0k
1i
15
07
0,
1.
#180000
b1001 !
1?
1{
1s
1$!
1:
1)
#200000
b1011 !
b101 "
b1010 !
1@
0?
1I
0{
1M
1y
0f
0$!
1%!
1;
0:
0)
1(
#220000
b1011 !
1?
1{
1}
1$!
1:
1)
#240000
b1111 !
b111 "
b11 #
b1101 !
b110 "
b1100 !
1W
0@
1J
0?
0I
1F
1|
0{
0s
0M
1K
0y
1c
1~
0}
0$!
0%!
1&!
1<
0;
0:
0)
0(
1'
#260000
b1101 !
1?
1{
1$!
1:
1)
#280000
b1111 !
b111 "
b1110 !
1@
0?
1I
0{
1M
1y
0$!
1%!
1;
0:
0)
1(
#300000
b1111 !
1?
1{
0K
1$!
1:
1)
#320000
b11111 !
b1111 "
b111 #
b11 $
b10111 !
b1011 "
b101 #
b10 $
b10011 !
b1001 "
b100 #
b10001 !
b1000 "
b10000 !
0U
1X
0W
0V
1Z
0@
0J
0H
1A
0?
0I
0F
0B
1C
0|
0o
0e
1Y
0z
1d
1!!
0{
0M
0y
0c
0~
0g
0u
1N
1v
1f
0a
0$!
0i
0%!
1j
0&!
0'!
1(!
1>
0=
0<
16
0;
05
0:
0)
0.
0(
1-
0'
0&
1%
#340000
b10001 !
1?
1{
1s
1}
1$!
1:
1)
#360000
b10011 !
b1001 "
b10010 !
1@
0?
1I
0{
1M
1y
0$!
1%!
1;
0:
0)
1(
#380000
b10011 !
1?
1{
1$!
1:
1)
#400000
b10111 !
b1011 "
b101 #
b10101 !
b1010 "
b10100 !
1W
0@
1J
0?
0I
1F
1|
0{
0s
0M
1K
0y
1c
1~
0}
0f
0$!
0%!
1&!
1<
0;
0:
0)
0(
1'
#420000
b10101 !
1?
1{
1$!
1:
1)
#440000
b10111 !
b1011 "
b10110 !
1@
0?
1I
0{
1M
1y
1}
0$!
1%!
1;
0:
0)
1(
#460000
b10111 !
1?
1{
0K
1$!
1:
1)
#480000
b11111 !
b1111 "
b111 #
b11 $
b11011 !
b1101 "
b110 #
b11001 !
b1100 "
b11000 !
1U
0W
1V
0@
0J
1H
0?
0I
0F
1B
0|
1e
1z
0{
0M
0y
0c
0~
1g
1u
0}
1f
0$!
1i
0%!
0&!
1'!
1=
0<
0;
15
0:
0)
1.
0(
0'
1&
#500000
b11001 !
1?
1{
1s
1$!
1:
1)
#520000
b11011 !
b1101 "
b11010 !
1@
0?
1I
0{
1M
1y
0$!
1%!
1;
0:
0)
1(
#540000
b11011 !
1?
1{
1}
1$!
1:
1)
#560000
b11111 !
b1111 "
b111 #
b11101 !
b1110 "
b11100 !
1W
0@
1J
0?
0I
1F
1|
0Y
0{
0s
0M
1K
0y
1c
1~
0}
0$!
0%!
1&!
1<
0;
0:
0)
0(
1'
#580000
b11101 !
1?
1{
1$!
1:
1)
#600000
b11111 !
b1111 "
b11110 !
1@
0?
1I
0{
1M
1y
0f
0$!
1%!
1;
0:
0)
1(
#620000
b11111 !
1?
1{
0K
1$!
1:
1)
#640000
b11111 "
b1111 #
b111 $
b1111 !
b10111 "
b1011 #
b101 $
b111 !
b10011 "
b1001 #
b100 $
b11 !
b10001 "
b1000 #
b1 !
b10000 "
b0 !
0?
0I
0F
0B
0C
0U
0X
1\
0W
0V
0Z
1Q
0@
0J
0H
0A
1D
0{
0M
0y
0c
0~
0g
0u
0r
0N
1E
0v
1O
0|
0e
0z
0d
0!!
0p
1b
1]
1w
1n
0[
0#!
1v
0O
0b
1^
0]
0$!
0i
0%!
0j
0&!
1k
0'!
0(!
0>
0=
17
0<
06
0;
05
0:
1#!
1`
1b
0^
0)
0.
0(
0-
0'
1,
0&
0%
1'!
0k
1l
18
07
1=
1a
0`
1&
0,
1+
1(!
0'!
0l
08
0=
1>
1h
1%
0&
0+
1k
17
1,
0k
07
0,
#660000
b1 !
1?
1s
1M
1i
15
1.
#680000
b11 !
b10001 "
b10 !
1@
0?
1I
1{
0M
1c
1}
1$!
0i
1j
16
05
1:
1)
0.
1-
#700000
b11 !
1?
1M
1i
15
1.
#720000
b111 !
b10011 "
b1001 #
b101 !
b10010 "
b100 !
1W
0@
1J
0?
0I
1F
1|
1o
0{
0s
0M
1K
1y
0c
1g
0h
0$!
0i
1%!
0j
1k
17
06
1;
05
0:
0)
0.
1(
0-
1,
#740000
b101 !
1?
1M
#760000
b111 !
b10011 "
b110 !
1@
0?
1I
1{
0M
1c
1$!
1:
1)
#780000
b111 !
1?
1M
0K
#800000
b1111 !
b10111 "
b1011 #
b101 $
b1011 !
b10101 "
b1010 #
b1001 !
b10100 "
b1000 !
1U
0W
1V
0@
0J
1H
0?
0I
0F
1B
0|
1e
1z
0{
0M
0y
0c
1~
0g
1N
0}
1f
1h
0a
0$!
1i
0%!
1&!
1<
0;
15
0:
0h
0)
1.
0(
1'
1l
0k
0i
05
07
18
1+
0,
0.
0l
1k
1i
15
17
08
0+
1,
1.
#820000
b1001 !
1?
1s
1M
0f
#840000
b1011 !
b10101 "
b1010 !
1@
0?
1I
1{
0M
1c
1$!
1:
1)
#860000
b1011 !
1?
1M
#880000
b1111 !
b10111 "
b1011 #
b1101 !
b10110 "
b1100 !
1W
0@
1J
0?
0I
1F
1|
0{
0s
0M
1K
1y
0c
1g
1f
0$!
1%!
1;
0:
0)
1(
#900000
b1101 !
1?
1M
0f
#920000
b1111 !
b10111 "
b1110 !
1@
0?
1I
1{
0M
1c
1$!
1:
1)
#940000
b1111 !
1?
1M
0K
#960000
b11111 !
b11111 "
b1111 #
b111 $
b10111 !
b11011 "
b1101 #
b110 $
b10011 !
b11001 "
b1100 #
b10001 !
b11000 "
b10000 !
0U
1X
0W
0V
1Z
0@
0J
0H
1A
0?
0I
0F
0B
1C
0|
0o
0e
1Y
0z
1d
1!!
0{
0M
0y
0c
0~
0g
1u
0N
1O
1f
0$!
0i
0%!
1j
0&!
1'!
1=
0<
16
0;
05
0:
0)
0.
0(
1-
0'
1&
#980000
b10001 !
1?
1s
1M
