5th semester/lab2/lab2/.files/Lab2_1/simulation/qsim/lab2_1.msim.vcd
$comment
	File created using the following command:
		vcd file lab2_1.msim.vcd -direction
$end
$date
	Thu Sep 14 12:37:14 2023
$end
$version
	ModelSim Version 10.5b
$end
$timescale
	1ps
$end

$scope module lab2_1_vlg_vec_tst $end
$var reg 2 ! a [1:0] $end
$var reg 2 " b [1:0] $end
$var reg 2 # c [1:0] $end
$var reg 2 $ d [1:0] $end
$var reg 1 % switch $end
$var wire 1 & res [1] $end
$var wire 1 ' res [0] $end

$scope module i1 $end
$var wire 1 ( gnd $end
$var wire 1 ) vcc $end
$var wire 1 * unknown $end
$var tri1 1 + devclrn $end
$var tri1 1 , devpor $end
$var tri1 1 - devoe $end
$var wire 1 . res[0]~output_o $end
$var wire 1 / res[1]~output_o $end
$var wire 1 0 switch~input_o $end
$var wire 1 1 d[1]~input_o $end
$var wire 1 2 c[1]~input_o $end
$var wire 1 3 res~0_combout $end
$var wire 1 4 b[1]~input_o $end
$var wire 1 5 a[1]~input_o $end
$var wire 1 6 LessThan2~0_combout $end
$var wire 1 7 c[0]~input_o $end
$var wire 1 8 d[0]~input_o $end
$var wire 1 9 min2[0]~0_combout $end
$var wire 1 : b[0]~input_o $end
$var wire 1 ; a[0]~input_o $end
$var wire 1 < min1[0]~0_combout $end
$var wire 1 = res~1_combout $end
$var wire 1 > max2[0]~1_combout $end
$var wire 1 ? max1[0]~1_combout $end
$var wire 1 @ max1[1]~0_combout $end
$var wire 1 A max2[1]~0_combout $end
$var wire 1 B res~2_combout $end
$var wire 1 C res~3_combout $end
$var wire 1 D res~4_combout $end
$var wire 1 E res~5_combout $end
$var wire 1 F res~6_combout $end
$var wire 1 G res~7_combout $end
$upscope $end
$upscope $end
$enddefinitions $end
#0
$dumpvars
b0 !
b0 "
b0 #
b0 $
x%
0'
0&
0(
1)
x*
1+
1,
1-
0.
0/
x0
01
02
03
04
05
06
07
08
09
0:
0;
0<
0=
0>
0?
0@
0A
0B
0C
0D
0E
0F
0G
$end
#20000
b1 !
1;
1?
1B
xC
xF
xD
xG
xE
x.
x/
x&
x'
#40000
b11 !
b1 "
b10 !
1:
0;
15
0?
1<
1@
#60000
b11 !
1;
1?
#80000
b11 "
b1 #
b1 !
b10 "
b0 !
0;
05
17
0:
14
0?
0<
1>
#100000
b1 !
1;
1<
#120000
b11 !
b11 "
b10 !
1:
0;
15
1?
0<
16
#140000
b11 !
1;
1<
#160000
b11 #
b1 $
b1 "
b10 #
b1 !
b0 "
b0 !
0;
05
0:
04
18
07
12
0?
0<
0@
06
0>
19
1A
0B
1=
#180000
b1 !
1;
1?
#200000
b11 !
b1 "
b10 !
1:
0;
15
0?
1<
1@
0=
0C
0F
#220000
b11 !
1;
1?
1B
xC
xF
#240000
b11 "
b11 #
b1 !
b10 "
b0 !
0;
05
17
0:
14
0?
0<
1>
0B
1=
#260000
b1 !
1;
1<
0=
0C
0F
1D
1E
1.
1'
#280000
b11 !
b11 "
b10 !
1:
0;
15
1?
0<
16
#300000
b11 !
1;
1<
#320000
b11 $
b1 #
b10 $
b1 "
b0 #
b1 !
b0 "
b0 !
0;
05
0:
04
07
02
08
11
0?
0<
0@
06
0>
09
0D
0E
0.
0'
#340000
b1 !
1;
1?
#360000
b11 !
b1 "
b10 !
1:
0;
15
0?
1<
1@
#380000
b11 !
1;
1?
1B
xC
xF
xD
xE
x.
x'
#400000
b11 "
b1 #
b1 !
b10 "
b0 !
0;
05
17
0:
14
0?
0<
19
0B
1=
#420000
b1 !
1;
1<
0=
0C
0F
#440000
b11 !
b11 "
b10 !
1:
0;
15
1?
0<
16
1B
xC
xF
#460000
b11 !
1;
1<
#480000
b11 #
b11 $
b1 "
b10 #
b1 !
b0 "
b0 !
0;
05
0:
04
18
07
12
0?
0<
0@
06
1>
09
13
0B
1=
#500000
b1 !
1;
1?
#520000
b11 !
b1 "
b10 !
1:
0;
15
0?
1<
1@
#540000
b11 !
1;
1?
#560000
b11 "
b11 #
b1 !
b10 "
b0 !
0;
05
17
0:
14
0?
0<
19
#580000
b1 !
1;
1<
#600000
b11 !
b11 "
b10 !
1:
0;
15
1?
0<
16
#620000
b11 !
1;
1<
0=
0C
1D
1E
1.
1'
#640000
b1 $
b1 #
b0 $
b1 "
b0 #
b1 !
b0 "
b0 !
0;
05
0:
04
07
02
08
01
0?
0<
0@
06
0>
09
0A
03
0F
0D
0G
0E
0.
0/
0&
0'
#660000
b1 !
1;
1?
1B
xC
xF
xD
xG
xE
x.
x/
x&
x'
#680000
b11 !
b1 "
b10 !
1:
0;
15
0?
1<
1@
#700000
b11 !
1;
1?
#720000
b11 "
b1 #
b1 !
b10 "
b0 !
0;
05
17
0:
14
0?
0<
1>
#740000
b1 !
1;
1<
#760000
b11 !
b11 "
b10 !
1:
0;
15
1?
0<
16
#780000
b11 !
1;
1<
#800000
b11 #
b1 $
b1 "
b10 #
b1 !
b0 "
b0 !
0;
05
0:
04
18
07
12
0?
0<
0@
06
0>
19
1A
0B
1=
#820000
b1 !
1;
1?
#840000
b11 !
b1 "
b10 !
1:
0;
15
0?
1<
1@
0=
0C
0F
#860000
b11 !
1;
1?
1B
xC
xF
#880000
b11 "
b11 #
b1 !
b10 "
b0 !
0;
05
17
0:
14
0?
0<
1>
0B
1=
#900000
b1 !
1;
1<
0=
0C
0F
1D
1E
1.
1'
#920000
b11 !
b11 "
b10 !
1:
0;
15
1?
0<
16
#940000
b11 !
1;
1<
#960000
b11 $
b1 #
b10 $
b1 "
b0 #
b1 !
b0 "
b0 !
0;
05
0:
04
07
02
08
11
0?
0<
0@
06
0>
09
0D
0E
0.
0'
#980000
b1 !
1;
1?
