5th semester/lab3/lab3/.files/lab3_3/simulation/qsim/lab3_3.msim.vcd
$comment
	File created using the following command:
		vcd file lab3_3.msim.vcd -direction
$end
$date
	Tue Sep 26 18:57:36 2023
$end
$version
	ModelSim Version 10.5b
$end
$timescale
	1ps
$end

$scope module lab3_3_vlg_vec_tst $end
$var reg 4 ! a [3:0] $end
$var reg 4 " b [3:0] $end
$var reg 1 # sel $end
$var wire 1 $ res [3] $end
$var wire 1 % res [2] $end
$var wire 1 & res [1] $end
$var wire 1 ' res [0] $end

$scope module i1 $end
$var wire 1 ( gnd $end
$var wire 1 ) vcc $end
$var wire 1 * unknown $end
$var tri1 1 + devclrn $end
$var tri1 1 , devpor $end
$var tri1 1 - devoe $end
$var wire 1 . res[0]~output_o $end
$var wire 1 / res[1]~output_o $end
$var wire 1 0 res[2]~output_o $end
$var wire 1 1 res[3]~output_o $end
$var wire 1 2 b[0]~input_o $end
$var wire 1 3 sel~input_o $end
$var wire 1 4 a[0]~input_o $end
$var wire 1 5 res~0_combout $end
$var wire 1 6 a[1]~input_o $end
$var wire 1 7 b[1]~input_o $end
$var wire 1 8 res~1_combout $end
$var wire 1 9 b[2]~input_o $end
$var wire 1 : a[2]~input_o $end
$var wire 1 ; res~2_combout $end
$var wire 1 < a[3]~input_o $end
$var wire 1 = b[3]~input_o $end
$var wire 1 > res~3_combout $end
$upscope $end
$upscope $end
$enddefinitions $end
#0
$dumpvars
b1100 !
b1011 "
0#
0'
0&
1%
1$
0(
1)
x*
1+
1,
1-
0.
0/
10
11
12
03
04
05
06
17
08
09
1:
1;
1<
1=
1>
$end
#40000
b100 !
b0 !
b1 !
b1111 "
b1110 "
02
19
14
0:
0<
15
0;
0>
01
00
1.
1'
0%
0$
#80000
b11 !
b110 "
b10 !
b10 "
09
0=
04
16
05
18
1/
0.
0'
1&
#120000
b0 "
b1 "
b11 !
b101 "
14
12
07
19
15
1.
1'
#160000
b111 !
b101 !
b111 "
b100 !
b11 "
17
09
04
06
1:
08
1;
05
0.
10
0/
0&
1%
0'
#200000
b1100 !
b1011 "
b1000 !
b1010 !
b1001 "
b1011 !
b1101 "
07
19
1=
14
16
0:
1<
18
0;
1>
15
1.
11
00
1/
1&
0%
1$
1'
#240000
b1100 "
b11 !
b111 !
b110 !
b1000 "
04
1:
0<
02
09
05
1;
0>
01
10
0.
0'
1%
0$
#280000
b0 "
b10 "
b111 !
b110 "
14
17
19
0=
15
1.
1'
#320000
b101 !
b111 "
b1101 !
b1001 !
b1111 "
b1000 !
12
1=
04
06
0:
1<
05
1>
08
0;
00
0/
11
0.
0'
1$
0&
0%
#360000
b1011 "
b1001 !
14
09
15
1.
1'
#400000
b1001 "
b1011 !
b1010 !
04
16
07
05
18
1/
0.
0'
1&
#440000
b1000 "
b1010 "
b1011 !
14
02
17
15
1.
1'
#480000
1#
b1111 !
b10 "
b110 "
b1101 !
b111 "
b1100 !
13
12
19
0=
04
06
1:
0>
1;
10
01
0$
1%
#520000
b1111 "
b1110 "
b1101 !
14
02
1=
05
1>
11
0.
0'
1$
#560000
b1111 !
b1111 "
b1110 !
12
04
16
15
1.
1'
#600000
b1111 !
14
#640000
b111 !
b11 !
b1 !
b0 !
04
06
0:
0<
#680000
b1101 "
b1001 "
b1 "
b0 "
b1 !
14
02
07
09
0=
05
08
0;
0>
01
00
0/
0.
0'
0&
0%
0$
#720000
b11 !
b10 !
04
16
#760000
b11 !
14
#800000
b111 !
b101 !
b100 !
04
06
1:
#840000
b101 !
14
#850000
b10 "
b110 "
b1110 "
b1111 "
12
17
19
1=
15
18
1;
1>
11
10
1/
1.
1'
1&
1%
1$
#880000
b111 !
b110 !
04
16
#920000
b111 !
14
#960000
0#
b1111 !
b1011 !
b1001 !
b1000 !
03
04
06
0:
1<
0;
08
05
0.
0/
00
0%
0&
0'
