5th semester/lab5/lab5/.files/lab5_1/simulation/qsim/lab5_1.msim.vcd
$comment
	File created using the following command:
		vcd file lab5_1.msim.vcd -direction
$end
$date
	Wed Oct 25 10:16:17 2023
$end
$version
	ModelSim Version 10.5b
$end
$timescale
	1ps
$end

$scope module lab5_1_vlg_vec_tst $end
$var reg 1 ! clk $end
$var reg 4 " din [3:0] $end
$var reg 1 # srst_in $end
$var wire 1 $ q [7] $end
$var wire 1 % q [6] $end
$var wire 1 & q [5] $end
$var wire 1 ' q [4] $end
$var wire 1 ( q [3] $end
$var wire 1 ) q [2] $end
$var wire 1 * q [1] $end
$var wire 1 + q [0] $end

$scope module i1 $end
$var wire 1 , gnd $end
$var wire 1 - vcc $end
$var wire 1 . unknown $end
$var tri1 1 / devclrn $end
$var tri1 1 0 devpor $end
$var tri1 1 1 devoe $end
$var wire 1 2 q[0]~output_o $end
$var wire 1 3 q[1]~output_o $end
$var wire 1 4 q[2]~output_o $end
$var wire 1 5 q[3]~output_o $end
$var wire 1 6 q[4]~output_o $end
$var wire 1 7 q[5]~output_o $end
$var wire 1 8 q[6]~output_o $end
$var wire 1 9 q[7]~output_o $end
$var wire 1 : clk~input_o $end
$var wire 1 ; din[1]~input_o $end
$var wire 1 < din[2]~input_o $end
$var wire 1 = din[3]~input_o $end
$var wire 1 > din[0]~input_o $end
$var wire 1 ? Selector1~0_combout $end
$var wire 1 @ Selector1~1_combout $end
$var wire 1 A Equal1~0_combout $end
$var wire 1 B Selector1~2_combout $end
$var wire 1 C srst_in~input_o $end
$var wire 1 D srst_temp~q $end
$var wire 1 E srst~q $end
$var wire 1 F state.S1~q $end
$var wire 1 G state~7_combout $end
$var wire 1 H Selector2~0_combout $end
$var wire 1 I state.S2~q $end
$var wire 1 J Selector0~0_combout $end
$var wire 1 K Selector0~1_combout $end
$var wire 1 L state.S0~q $end
$var wire 1 M d [3] $end
$var wire 1 N d [2] $end
$var wire 1 O d [1] $end
$var wire 1 P d [0] $end
$var wire 1 Q din_temp [3] $end
$var wire 1 R din_temp [2] $end
$var wire 1 S din_temp [1] $end
$var wire 1 T din_temp [0] $end
$upscope $end
$upscope $end
$enddefinitions $end
#0
$dumpvars
0!
b1111 "
1#
0+
0*
0)
0(
0'
0&
0%
0$
0,
1-
x.
1/
10
11
02
03
04
05
06
07
08
09
0:
1;
1<
1=
1>
0?
0@
0A
0B
1C
0D
0E
0F
0G
0H
0I
0J
0K
0L
0P
0O
0N
0M
0T
0S
0R
0Q
$end
#10000
1!
1:
1D
1T
1Q
1R
1S
#20000
0!
0:
#30000
1!
1:
1E
1P
1M
1N
1O
#40000
b111 "
b11 "
b1 "
0!
0;
0<
0=
0:
#50000
1!
1:
0Q
0R
0S
#60000
b0 "
0!
0>
0:
#70000
1!
1:
0M
0N
0O
0T
1J
1?
1@
1K
1B
#80000
b1 "
0!
1>
0:
#90000
1!
1:
1F
0P
1L
1T
12
14
16
18
0J
0?
1%
1'
1)
1+
0K
0@
1K
#100000
b101 "
b100 "
0!
0>
1<
0:
#110000
1!
1:
1P
0T
1R
#120000
b110 "
b10 "
0!
1;
0<
0:
#130000
1!
1:
0P
1N
0R
1S
1G
#140000
b0 "
0!
0;
0:
#150000
1!
1:
0N
1O
0S
0G
1A
1H
0B
#160000
b1 "
0!
1>
0:
#170000
1!
1:
0F
0O
1I
1T
13
15
17
19
0A
1$
1&
1(
1*
#180000
b11 "
b10 "
0!
0>
1;
0:
#190000
1!
1:
1P
0T
1S
#200000
b11 "
0!
1>
0:
#210000
1!
1:
0P
1O
1T
1A
#220000
b111 "
b101 "
b100 "
0!
0>
0;
1<
0:
#230000
1!
1:
1P
0T
1R
0S
0A
#240000
b0 "
b10 "
0!
1;
0<
0:
#250000
1!
1:
0P
1N
0O
0R
1S
1G
1?
1@
0H
1B
#260000
b11 "
b111 "
0!
1>
1<
0:
#270000
1!
1:
1F
0N
1O
0I
1T
1R
03
05
07
09
0G
1A
0?
0@
0$
0&
0(
0*
1H
0B
#280000
b110 "
0!
0>
0:
#290000
1!
1:
0F
1P
1N
1I
0T
13
15
17
19
0A
1$
1&
1(
1*
#300000
b1110 "
b1100 "
b1000 "
0!
0;
0<
1=
0:
#310000
1!
1:
0P
1Q
0R
0S
1?
#320000
b0 "
0!
0=
0:
#330000
1!
1:
1M
0N
0O
0Q
1J
1G
0?
0K
0H
#340000
0!
0:
#350000
b1 "
1!
1>
1:
0M
0L
0I
1T
03
05
07
09
02
04
06
08
0J
0G
0%
0'
0)
0+
0$
0&
0(
0*
1K
0K
#360000
0!
0:
#370000
b0 "
1!
0>
1:
1P
0T
1J
1?
1@
1K
1B
#380000
0!
0:
#390000
b10 "
1!
1;
1:
1F
0P
1L
1S
12
14
16
18
0J
0?
1%
1'
1)
1+
0K
0@
1K
#400000
0!
0:
#410000
1!
1:
1O
1A
1H
0B
#420000
b0 "
0!
0;
0:
#430000
1!
1:
0F
1I
0S
13
15
17
19
1$
1&
1(
1*
#440000
0!
0:
#450000
1!
1:
0O
0A
#460000
b100 "
0!
1<
0:
#470000
1!
1:
1R
#480000
0!
0:
#490000
b0 "
1!
0<
1:
1N
0R
1G
1?
1@
0H
1B
#500000
0!
0:
#510000
1!
1:
1F
0N
0I
03
05
07
09
0G
0?
0$
0&
0(
0*
0@
#520000
0!
0:
#530000
1!
1:
#540000
0!
0:
#550000
0#
1!
0C
1:
0D
#560000
0!
0:
#570000
1#
1!
1C
1:
0E
1D
0F
0L
02
04
06
08
0%
0'
0)
0+
0K
0B
#580000
0!
0:
#590000
1!
1:
1E
#600000
0!
0:
#610000
1!
1:
#620000
0!
0:
#630000
1!
1:
#640000
0!
0:
#650000
1!
1:
#660000
0!
0:
#670000
1!
1:
#680000
0!
0:
#690000
1!
1:
#700000
0!
0:
#710000
1!
1:
#720000
0!
0:
#730000
1!
1:
#740000
0!
0:
#750000
1!
1:
#760000
0!
0:
#770000
1!
1:
#780000
0!
0:
#790000
1!
1:
#800000
0!
0:
#810000
1!
1:
#820000
0!
0:
#830000
1!
1:
#840000
0!
0:
#850000
1!
1:
#860000
0!
0:
#870000
1!
1:
#880000
0!
0:
#890000
1!
1:
#900000
0!
0:
#910000
1!
1:
#920000
0!
0:
#930000
1!
1:
#940000
0!
0:
#950000
1!
1:
#960000
0!
0:
#970000
1!
1:
#980000
0!
0:
#990000
1!
1:
