5th semester/lab3/lab3/.files/lab3_1/simulation/qsim/lab3_1.msim.vcd
$comment
	File created using the following command:
		vcd file lab3_1.msim.vcd -direction
$end
$date
	Tue Sep 26 18:37:59 2023
$end
$version
	ModelSim Version 10.5b
$end
$timescale
	1ps
$end

$scope module lab3_1_vlg_vec_tst $end
$var reg 4 ! a [3:0] $end
$var reg 4 " b [3:0] $end
$var wire 1 # dmax [3] $end
$var wire 1 $ dmax [2] $end
$var wire 1 % dmax [1] $end
$var wire 1 & dmax [0] $end
$var wire 1 ' dmin [3] $end
$var wire 1 ( dmin [2] $end
$var wire 1 ) dmin [1] $end
$var wire 1 * dmin [0] $end

$scope module i1 $end
$var wire 1 + gnd $end
$var wire 1 , vcc $end
$var wire 1 - unknown $end
$var tri1 1 . devclrn $end
$var tri1 1 / devpor $end
$var tri1 1 0 devoe $end
$var wire 1 1 dmin[0]~output_o $end
$var wire 1 2 dmin[1]~output_o $end
$var wire 1 3 dmin[2]~output_o $end
$var wire 1 4 dmin[3]~output_o $end
$var wire 1 5 dmax[0]~output_o $end
$var wire 1 6 dmax[1]~output_o $end
$var wire 1 7 dmax[2]~output_o $end
$var wire 1 8 dmax[3]~output_o $end
$var wire 1 9 a[2]~input_o $end
$var wire 1 : a[1]~input_o $end
$var wire 1 ; b[0]~input_o $end
$var wire 1 < a[0]~input_o $end
$var wire 1 = b[1]~input_o $end
$var wire 1 > LessThan0~0_combout $end
$var wire 1 ? b[2]~input_o $end
$var wire 1 @ LessThan0~1_combout $end
$var wire 1 A a[3]~input_o $end
$var wire 1 B b[3]~input_o $end
$var wire 1 C LessThan0~2_combout $end
$var wire 1 D dmin~2_combout $end
$var wire 1 E dmin~3_combout $end
$var wire 1 F dmin~4_combout $end
$var wire 1 G dmin~5_combout $end
$var wire 1 H dmax~2_combout $end
$var wire 1 I dmax~3_combout $end
$var wire 1 J dmax~4_combout $end
$var wire 1 K dmax~5_combout $end
$upscope $end
$upscope $end
$enddefinitions $end
#0
$dumpvars
b1111 !
b1100 "
1&
1%
1$
1#
0*
0)
1(
1'
0+
1,
x-
1.
1/
10
01
02
13
14
15
16
17
18
19
1:
0;
1<
0=
1>
1?
1@
1A
1B
1C
0D
0E
1F
1G
1H
1I
1J
1K
$end
#40000
b111 !
b11 !
b1110 "
1=
09
0A
0@
0C
1E
0J
0G
04
07
12
1)
0$
0'
1J
0H
0F
1D
11
03
05
17
1$
0&
0(
1*
#80000
b10 !
b1111 "
b1010 !
b1101 "
1;
0=
0<
1A
1H
0D
0I
1G
14
06
01
15
1&
0*
0%
1'
#120000
b1100 "
b10 !
0A
0;
0G
0H
05
04
0'
0&
#160000
b0 !
b1000 "
b100 !
b1010 "
b1011 "
b1100 !
1;
1=
0?
0:
19
1A
0>
1@
1H
1I
0E
0J
1F
1G
14
13
07
02
16
15
1C
1&
1%
0)
0$
1(
1'
1J
0I
0H
0F
1E
1D
11
12
03
05
06
17
1$
0%
0&
0(
1)
1*
#200000
b1000 !
b1001 "
b1000 "
0;
0=
09
0@
0D
0E
0J
07
02
01
0C
0*
0)
0$
#240000
b1001 !
b1011 !
b1001 "
1;
1<
1:
1>
1H
1D
1E
12
11
15
1@
1&
1*
1)
1C
1I
0E
02
16
1%
0)
#280000
b1011 "
b1010 !
b1000 !
0<
0:
1=
0>
0H
0I
1E
12
06
05
0@
0&
0%
1)
0C
1I
1H
0E
0D
01
02
15
16
1%
1&
0)
0*
#320000
b0 !
b100 !
b1010 "
b101 !
b111 !
0;
1<
1:
19
0A
1>
1@
0H
1D
1E
1F
0G
04
13
12
11
05
0&
1*
1)
1(
0'
#360000
b10 "
b110 "
b110 !
b100 !
0<
0:
1?
0B
0>
1C
0D
0E
1J
0K
08
17
02
01
0@
0*
0)
1$
0#
0I
1E
12
06
0C
0%
1)
1I
0E
02
16
1%
0)
#400000
b100 "
b1100 !
b1000 !
b101 "
b1001 !
1<
09
1A
1;
0=
1C
1H
1D
0F
1K
0I
06
18
03
11
15
1&
1*
0(
1#
0%
0J
1F
13
07
0$
1(
#440000
b1011 !
b11 !
b111 !
b100 "
0;
1:
19
0A
1>
0C
0D
1I
1J
0K
08
17
16
01
1@
0*
1%
1$
0#
0I
0H
1E
1D
11
12
05
06
1C
0%
0&
1)
1*
1I
1H
0E
0D
01
02
15
16
1%
1&
0)
0*
#480000
b0 "
b10 "
b1111 !
b1011 !
b11 "
09
1A
1;
1=
0?
0>
0J
0F
1K
1D
1E
12
11
18
03
07
0@
0$
0(
1#
1*
1)
#520000
b1111 !
b10 "
0;
19
1>
1@
0D
1J
17
01
0*
1$
#560000
b1110 !
b1100 !
b0 "
b1000 !
b1 "
1;
0=
0<
0:
09
0>
0H
1D
0I
0E
0J
07
02
06
11
05
0@
0&
1*
0%
0)
0$
#600000
b0 !
b0 "
0;
0A
0C
0D
0K
08
01
0*
0#
